<svg width="16" height="16" viewBox="0 0 16 16" fill="none" xmlns="http://www.w3.org/2000/svg">
<path d="M0.499756 0.5V8.95801C0.494873 8.98535 0.494873 9.0127 0.499756 9.03906V15.5H2.24976C2.3396 15.501 2.42358 15.4541 2.46948 15.376C2.5144 15.2979 2.5144 15.2021 2.46948 15.124C2.42358 15.0459 2.3396 14.999 2.24976 15H0.999756V9.25H1.74976C1.8396 9.25098 1.92358 9.2041 1.96948 9.12598C2.0144 9.04785 2.0144 8.95215 1.96948 8.87402C1.92358 8.7959 1.8396 8.74902 1.74976 8.75H0.999756V1H6.49976V4.02148L6.77026 3.99902C6.77026 3.99902 7.56714 3.93555 8.3689 3.50098C9.11987 3.09375 9.8689 2.30078 9.96362 1H14.9998V8.75H14.2498C14.1599 8.74902 14.0759 8.7959 14.03 8.87402C13.9851 8.95215 13.9851 9.04785 14.03 9.12598C14.0759 9.2041 14.1599 9.25098 14.2498 9.25H14.9998V15H13.9998C13.9099 14.999 13.8259 15.0459 13.78 15.124C13.7351 15.2021 13.7351 15.2979 13.78 15.376C13.8259 15.4541 13.9099 15.501 13.9998 15.5H15.4998V9.04199C15.5046 9.01465 15.5046 8.9873 15.4998 8.96094V0.5H9.49976V0.75C9.49976 2.03418 8.82886 2.68359 8.13062 3.06152C7.64819 3.32324 7.25366 3.41016 6.99976 3.45312V0.5H0.499756ZM7.99585 8.74609C7.98413 8.74707 7.97144 8.74805 7.95972 8.75H6.74976C6.65991 8.74902 6.57593 8.7959 6.53003 8.87402C6.48511 8.95215 6.48511 9.04785 6.53003 9.12598C6.57593 9.2041 6.65991 9.25098 6.74976 9.25H7.74976V15H5.99976C5.90991 14.999 5.82593 15.0459 5.78003 15.124C5.73511 15.2021 5.73511 15.2979 5.78003 15.376C5.82593 15.4541 5.90991 15.501 5.99976 15.5H7.95776C7.98511 15.5049 8.01245 15.5049 8.03882 15.5H9.99976C10.0896 15.501 10.1736 15.4541 10.2195 15.376C10.2644 15.2979 10.2644 15.2021 10.2195 15.124C10.1736 15.0459 10.0896 14.999 9.99976 15H8.24976V9.25H9.24976C9.3396 9.25098 9.42358 9.2041 9.46948 9.12598C9.5144 9.04785 9.5144 8.95215 9.46948 8.87402C9.42358 8.7959 9.3396 8.74902 9.24976 8.75H8.03882C8.02417 8.74805 8.0105 8.74609 7.99585 8.74609ZM2.74976 8.75C2.61206 8.75 2.49976 8.8623 2.49976 9C2.49976 9.1377 2.61206 9.25 2.74976 9.25C2.88745 9.25 2.99976 9.1377 2.99976 9C2.99976 8.8623 2.88745 8.75 2.74976 8.75ZM3.74976 8.75C3.61206 8.75 3.49976 8.8623 3.49976 9C3.49976 9.1377 3.61206 9.25 3.74976 9.25C3.88745 9.25 3.99976 9.1377 3.99976 9C3.99976 8.8623 3.88745 8.75 3.74976 8.75ZM4.74976 8.75C4.61206 8.75 4.49976 8.8623 4.49976 9C4.49976 9.1377 4.61206 9.25 4.74976 9.25C4.88745 9.25 4.99976 9.1377 4.99976 9C4.99976 8.8623 4.88745 8.75 4.74976 8.75ZM5.74976 8.75C5.61206 8.75 5.49976 8.8623 5.49976 9C5.49976 9.1377 5.61206 9.25 5.74976 9.25C5.88745 9.25 5.99976 9.1377 5.99976 9C5.99976 8.8623 5.88745 8.75 5.74976 8.75ZM10.2498 8.75C10.1121 8.75 9.99976 8.8623 9.99976 9C9.99976 9.1377 10.1121 9.25 10.2498 9.25C10.3875 9.25 10.4998 9.1377 10.4998 9C10.4998 8.8623 10.3875 8.75 10.2498 8.75ZM11.2498 8.75C11.1121 8.75 10.9998 8.8623 10.9998 9C10.9998 9.1377 11.1121 9.25 11.2498 9.25C11.3875 9.25 11.4998 9.1377 11.4998 9C11.4998 8.8623 11.3875 8.75 11.2498 8.75ZM12.2498 8.75C12.1121 8.75 11.9998 8.8623 11.9998 9C11.9998 9.1377 12.1121 9.25 12.2498 9.25C12.3875 9.25 12.4998 9.1377 12.4998 9C12.4998 8.8623 12.3875 8.75 12.2498 8.75ZM13.2498 8.75C13.1121 8.75 12.9998 8.8623 12.9998 9C12.9998 9.1377 13.1121 9.25 13.2498 9.25C13.3875 9.25 13.4998 9.1377 13.4998 9C13.4998 8.8623 13.3875 8.75 13.2498 8.75ZM3.24976 15C3.11206 15 2.99976 15.1123 2.99976 15.25C2.99976 15.3877 3.11206 15.5 3.24976 15.5C3.38745 15.5 3.49976 15.3877 3.49976 15.25C3.49976 15.1123 3.38745 15 3.24976 15ZM4.24976 15C4.11206 15 3.99976 15.1123 3.99976 15.25C3.99976 15.3877 4.11206 15.5 4.24976 15.5C4.38745 15.5 4.49976 15.3877 4.49976 15.25C4.49976 15.1123 4.38745 15 4.24976 15ZM5.24976 15C5.11206 15 4.99976 15.1123 4.99976 15.25C4.99976 15.3877 5.11206 15.5 5.24976 15.5C5.38745 15.5 5.49976 15.3877 5.49976 15.25C5.49976 15.1123 5.38745 15 5.24976 15ZM10.9998 15C10.8621 15 10.7498 15.1123 10.7498 15.25C10.7498 15.3877 10.8621 15.5 10.9998 15.5C11.1375 15.5 11.2498 15.3877 11.2498 15.25C11.2498 15.1123 11.1375 15 10.9998 15ZM11.9998 15C11.8621 15 11.7498 15.1123 11.7498 15.25C11.7498 15.3877 11.8621 15.5 11.9998 15.5C12.1375 15.5 12.2498 15.3877 12.2498 15.25C12.2498 15.1123 12.1375 15 11.9998 15ZM12.9998 15C12.8621 15 12.7498 15.1123 12.7498 15.25C12.7498 15.3877 12.8621 15.5 12.9998 15.5C13.1375 15.5 13.2498 15.3877 13.2498 15.25C13.2498 15.1123 13.1375 15 12.9998 15Z" fill="black"/>
</svg>
