<svg width="14" height="14" viewBox="0 0 14 14" fill="none" xmlns="http://www.w3.org/2000/svg">
<path d="M12.6205 9.53925L10.6566 9.31324C10.1812 9.25869 9.71357 9.42235 9.37845 9.75747L7.93665 11.1993C6.83075 10.6381 5.82773 9.90633 4.96109 9.03891C4.09367 8.17227 3.36186 7.16925 2.80073 6.06335L4.24253 4.62155C4.57765 4.28643 4.74131 3.81882 4.68676 3.34341L4.46075 1.37945C4.36723 0.592307 3.70478 0 2.90984 0H1.56156C0.680898 0 -0.0516916 0.73259 0.00286293 1.61326C0.209391 4.9403 1.64262 7.93223 3.85519 10.1448C6.06777 12.3574 9.0597 13.7906 12.3867 13.9971C13.2674 14.0517 14 13.3191 14 12.4384V11.0902C14 10.2952 13.4077 9.63277 12.6205 9.53925Z" fill="white"/>
</svg>
