<svg width="18" height="14" viewBox="0 0 18 14" fill="none" xmlns="http://www.w3.org/2000/svg">
<path d="M1.75 0.25C1.2002 0.25 0.75 0.700195 0.75 1.25V12.75C0.75 13.2998 1.2002 13.75 1.75 13.75H16.25C16.7998 13.75 17.25 13.2998 17.25 12.75V1.25C17.25 0.700195 16.7998 0.25 16.25 0.25H1.75ZM1.75 0.75H16.25C16.5293 0.75 16.75 0.970703 16.75 1.25V12.75C16.75 13.0293 16.5293 13.25 16.25 13.25H1.75C1.4707 13.25 1.25 13.0293 1.25 12.75V1.25C1.25 0.970703 1.4707 0.75 1.75 0.75ZM2.5 1.75C2.3623 1.75 2.25 1.8623 2.25 2C2.25 2.1377 2.3623 2.25 2.5 2.25C2.6377 2.25 2.75 2.1377 2.75 2C2.75 1.8623 2.6377 1.75 2.5 1.75ZM3.5 1.75C3.3623 1.75 3.25 1.8623 3.25 2C3.25 2.1377 3.3623 2.25 3.5 2.25C3.6377 2.25 3.75 2.1377 3.75 2C3.75 1.8623 3.6377 1.75 3.5 1.75ZM4.5 1.75C4.3623 1.75 4.25 1.8623 4.25 2C4.25 2.1377 4.3623 2.25 4.5 2.25C4.6377 2.25 4.75 2.1377 4.75 2C4.75 1.8623 4.6377 1.75 4.5 1.75ZM5.5 1.75C5.3623 1.75 5.25 1.8623 5.25 2C5.25 2.1377 5.3623 2.25 5.5 2.25C5.6377 2.25 5.75 2.1377 5.75 2C5.75 1.8623 5.6377 1.75 5.5 1.75ZM6.5 1.75C6.3623 1.75 6.25 1.8623 6.25 2C6.25 2.1377 6.3623 2.25 6.5 2.25C6.6377 2.25 6.75 2.1377 6.75 2C6.75 1.8623 6.6377 1.75 6.5 1.75ZM7.5 1.75C7.3623 1.75 7.25 1.8623 7.25 2C7.25 2.1377 7.3623 2.25 7.5 2.25C7.6377 2.25 7.75 2.1377 7.75 2C7.75 1.8623 7.6377 1.75 7.5 1.75ZM8.5 1.75C8.3623 1.75 8.25 1.8623 8.25 2C8.25 2.1377 8.3623 2.25 8.5 2.25C8.6377 2.25 8.75 2.1377 8.75 2C8.75 1.8623 8.6377 1.75 8.5 1.75ZM9.5 1.75C9.3623 1.75 9.25 1.8623 9.25 2C9.25 2.1377 9.3623 2.25 9.5 2.25C9.6377 2.25 9.75 2.1377 9.75 2C9.75 1.8623 9.6377 1.75 9.5 1.75ZM10.5 1.75C10.3623 1.75 10.25 1.8623 10.25 2C10.25 2.1377 10.3623 2.25 10.5 2.25C10.6377 2.25 10.75 2.1377 10.75 2C10.75 1.8623 10.6377 1.75 10.5 1.75ZM11.5 1.75C11.3623 1.75 11.25 1.8623 11.25 2C11.25 2.1377 11.3623 2.25 11.5 2.25C11.6377 2.25 11.75 2.1377 11.75 2C11.75 1.8623 11.6377 1.75 11.5 1.75ZM12.5 1.75C12.3623 1.75 12.25 1.8623 12.25 2C12.25 2.1377 12.3623 2.25 12.5 2.25C12.6377 2.25 12.75 2.1377 12.75 2C12.75 1.8623 12.6377 1.75 12.5 1.75ZM13.5 1.75C13.3623 1.75 13.25 1.8623 13.25 2C13.25 2.1377 13.3623 2.25 13.5 2.25C13.6377 2.25 13.75 2.1377 13.75 2C13.75 1.8623 13.6377 1.75 13.5 1.75ZM14.5 1.75C14.3623 1.75 14.25 1.8623 14.25 2C14.25 2.1377 14.3623 2.25 14.5 2.25C14.6377 2.25 14.75 2.1377 14.75 2C14.75 1.8623 14.6377 1.75 14.5 1.75ZM15.5 1.75C15.3623 1.75 15.25 1.8623 15.25 2C15.25 2.1377 15.3623 2.25 15.5 2.25C15.6377 2.25 15.75 2.1377 15.75 2C15.75 1.8623 15.6377 1.75 15.5 1.75ZM2.5 2.75C2.3623 2.75 2.25 2.8623 2.25 3C2.25 3.1377 2.3623 3.25 2.5 3.25C2.6377 3.25 2.75 3.1377 2.75 3C2.75 2.8623 2.6377 2.75 2.5 2.75ZM15.5 2.75C15.3623 2.75 15.25 2.8623 15.25 3C15.25 3.1377 15.3623 3.25 15.5 3.25C15.6377 3.25 15.75 3.1377 15.75 3C15.75 2.8623 15.6377 2.75 15.5 2.75ZM2.5 3.75C2.3623 3.75 2.25 3.8623 2.25 4C2.25 4.1377 2.3623 4.25 2.5 4.25C2.6377 4.25 2.75 4.1377 2.75 4C2.75 3.8623 2.6377 3.75 2.5 3.75ZM15.5 3.75C15.3623 3.75 15.25 3.8623 15.25 4C15.25 4.1377 15.3623 4.25 15.5 4.25C15.6377 4.25 15.75 4.1377 15.75 4C15.75 3.8623 15.6377 3.75 15.5 3.75ZM2.5 4.75C2.3623 4.75 2.25 4.8623 2.25 5C2.25 5.1377 2.3623 5.25 2.5 5.25C2.6377 5.25 2.75 5.1377 2.75 5C2.75 4.8623 2.6377 4.75 2.5 4.75ZM15.5 4.75C15.3623 4.75 15.25 4.8623 15.25 5C15.25 5.1377 15.3623 5.25 15.5 5.25C15.6377 5.25 15.75 5.1377 15.75 5C15.75 4.8623 15.6377 4.75 15.5 4.75ZM4.96777 5.41211L6.15918 8.93457H7.0498L8.22363 5.41211H7.43066L6.64453 8.10547H6.60059L5.7998 5.41211H4.96777ZM8.82422 5.41211V8.93457H9.5625V5.41211H8.82422ZM10.5166 5.41211V8.93457H11.2539V7.84082H11.9492C12.6914 7.84082 13.207 7.35547 13.207 6.62988C13.207 5.89746 12.7109 5.41211 11.9863 5.41211H10.5166ZM2.5 5.75C2.3623 5.75 2.25 5.8623 2.25 6C2.25 6.1377 2.3623 6.25 2.5 6.25C2.6377 6.25 2.75 6.1377 2.75 6C2.75 5.8623 2.6377 5.75 2.5 5.75ZM15.5 5.75C15.3623 5.75 15.25 5.8623 15.25 6C15.25 6.1377 15.3623 6.25 15.5 6.25C15.6377 6.25 15.75 6.1377 15.75 6C15.75 5.8623 15.6377 5.75 15.5 5.75ZM11.2539 6.01758H11.791C12.2158 6.01758 12.457 6.23242 12.457 6.63281C12.457 7.02832 12.2109 7.24316 11.7891 7.24316H11.2539V6.01758ZM2.5 6.75C2.3623 6.75 2.25 6.8623 2.25 7C2.25 7.1377 2.3623 7.25 2.5 7.25C2.6377 7.25 2.75 7.1377 2.75 7C2.75 6.8623 2.6377 6.75 2.5 6.75ZM15.5 6.75C15.3623 6.75 15.25 6.8623 15.25 7C15.25 7.1377 15.3623 7.25 15.5 7.25C15.6377 7.25 15.75 7.1377 15.75 7C15.75 6.8623 15.6377 6.75 15.5 6.75ZM2.5 7.75C2.3623 7.75 2.25 7.8623 2.25 8C2.25 8.1377 2.3623 8.25 2.5 8.25C2.6377 8.25 2.75 8.1377 2.75 8C2.75 7.8623 2.6377 7.75 2.5 7.75ZM15.5 7.75C15.3623 7.75 15.25 7.8623 15.25 8C15.25 8.1377 15.3623 8.25 15.5 8.25C15.6377 8.25 15.75 8.1377 15.75 8C15.75 7.8623 15.6377 7.75 15.5 7.75ZM2.5 8.75C2.3623 8.75 2.25 8.8623 2.25 9C2.25 9.1377 2.3623 9.25 2.5 9.25C2.6377 9.25 2.75 9.1377 2.75 9C2.75 8.8623 2.6377 8.75 2.5 8.75ZM15.5 8.75C15.3623 8.75 15.25 8.8623 15.25 9C15.25 9.1377 15.3623 9.25 15.5 9.25C15.6377 9.25 15.75 9.1377 15.75 9C15.75 8.8623 15.6377 8.75 15.5 8.75ZM2.5 9.75C2.3623 9.75 2.25 9.8623 2.25 10C2.25 10.1377 2.3623 10.25 2.5 10.25C2.6377 10.25 2.75 10.1377 2.75 10C2.75 9.8623 2.6377 9.75 2.5 9.75ZM15.5 9.75C15.3623 9.75 15.25 9.8623 15.25 10C15.25 10.1377 15.3623 10.25 15.5 10.25C15.6377 10.25 15.75 10.1377 15.75 10C15.75 9.8623 15.6377 9.75 15.5 9.75ZM2.5 10.75C2.3623 10.75 2.25 10.8623 2.25 11C2.25 11.1377 2.3623 11.25 2.5 11.25C2.6377 11.25 2.75 11.1377 2.75 11C2.75 10.8623 2.6377 10.75 2.5 10.75ZM15.5 10.75C15.3623 10.75 15.25 10.8623 15.25 11C15.25 11.1377 15.3623 11.25 15.5 11.25C15.6377 11.25 15.75 11.1377 15.75 11C15.75 10.8623 15.6377 10.75 15.5 10.75ZM2.5 11.75C2.3623 11.75 2.25 11.8623 2.25 12C2.25 12.1377 2.3623 12.25 2.5 12.25C2.6377 12.25 2.75 12.1377 2.75 12C2.75 11.8623 2.6377 11.75 2.5 11.75ZM3.5 11.75C3.3623 11.75 3.25 11.8623 3.25 12C3.25 12.1377 3.3623 12.25 3.5 12.25C3.6377 12.25 3.75 12.1377 3.75 12C3.75 11.8623 3.6377 11.75 3.5 11.75ZM4.5 11.75C4.3623 11.75 4.25 11.8623 4.25 12C4.25 12.1377 4.3623 12.25 4.5 12.25C4.6377 12.25 4.75 12.1377 4.75 12C4.75 11.8623 4.6377 11.75 4.5 11.75ZM5.5 11.75C5.3623 11.75 5.25 11.8623 5.25 12C5.25 12.1377 5.3623 12.25 5.5 12.25C5.6377 12.25 5.75 12.1377 5.75 12C5.75 11.8623 5.6377 11.75 5.5 11.75ZM6.5 11.75C6.3623 11.75 6.25 11.8623 6.25 12C6.25 12.1377 6.3623 12.25 6.5 12.25C6.6377 12.25 6.75 12.1377 6.75 12C6.75 11.8623 6.6377 11.75 6.5 11.75ZM7.5 11.75C7.3623 11.75 7.25 11.8623 7.25 12C7.25 12.1377 7.3623 12.25 7.5 12.25C7.6377 12.25 7.75 12.1377 7.75 12C7.75 11.8623 7.6377 11.75 7.5 11.75ZM8.5 11.75C8.3623 11.75 8.25 11.8623 8.25 12C8.25 12.1377 8.3623 12.25 8.5 12.25C8.6377 12.25 8.75 12.1377 8.75 12C8.75 11.8623 8.6377 11.75 8.5 11.75ZM9.5 11.75C9.3623 11.75 9.25 11.8623 9.25 12C9.25 12.1377 9.3623 12.25 9.5 12.25C9.6377 12.25 9.75 12.1377 9.75 12C9.75 11.8623 9.6377 11.75 9.5 11.75ZM10.5 11.75C10.3623 11.75 10.25 11.8623 10.25 12C10.25 12.1377 10.3623 12.25 10.5 12.25C10.6377 12.25 10.75 12.1377 10.75 12C10.75 11.8623 10.6377 11.75 10.5 11.75ZM11.5 11.75C11.3623 11.75 11.25 11.8623 11.25 12C11.25 12.1377 11.3623 12.25 11.5 12.25C11.6377 12.25 11.75 12.1377 11.75 12C11.75 11.8623 11.6377 11.75 11.5 11.75ZM12.5 11.75C12.3623 11.75 12.25 11.8623 12.25 12C12.25 12.1377 12.3623 12.25 12.5 12.25C12.6377 12.25 12.75 12.1377 12.75 12C12.75 11.8623 12.6377 11.75 12.5 11.75ZM13.5 11.75C13.3623 11.75 13.25 11.8623 13.25 12C13.25 12.1377 13.3623 12.25 13.5 12.25C13.6377 12.25 13.75 12.1377 13.75 12C13.75 11.8623 13.6377 11.75 13.5 11.75ZM14.5 11.75C14.3623 11.75 14.25 11.8623 14.25 12C14.25 12.1377 14.3623 12.25 14.5 12.25C14.6377 12.25 14.75 12.1377 14.75 12C14.75 11.8623 14.6377 11.75 14.5 11.75ZM15.5 11.75C15.3623 11.75 15.25 11.8623 15.25 12C15.25 12.1377 15.3623 12.25 15.5 12.25C15.6377 12.25 15.75 12.1377 15.75 12C15.75 11.8623 15.6377 11.75 15.5 11.75Z" fill="black"/>
</svg>
